interactions:
- request:
    body: null
    headers:
      Accept:
      - '*/*'
      Accept-Encoding:
      - gzip, deflate
      Connection:
      - keep-alive
      User-Agent:
      - python-requests/2.31.0
      x-api-key:
      - DUMMY
    method: GET
    uri: https://api.congress.gov/v3/bill?limit=5
  response:
    body:
      string: "{\n    \"bills\": [\n        {\n            \"congress\": 118,\n            \"latestAction\":
        {\n                \"actionDate\": \"2024-03-26\",\n                \"text\":
        \"Placed on the Union Calendar, Calendar No. 357.\"\n            },\n            \"number\":
        \"6192\",\n            \"originChamber\": \"House\",\n            \"originChamberCode\":
        \"H\",\n            \"title\": \"Hands Off Our Home Appliances Act\",\n            \"type\":
        \"HR\",\n            \"updateDate\": \"2024-03-29\",\n            \"updateDateIncludingText\":
        \"2024-03-29T18:11:12Z\",\n            \"url\": \"https://api.congress.gov/v3/bill/118/hr/6192?format=json\"\n
        \       },\n        {\n            \"congress\": 118,\n            \"latestAction\":
        {\n                \"actionDate\": \"2024-03-26\",\n                \"text\":
        \"Placed on the Union Calendar, Calendar No. 356.\"\n            },\n            \"number\":
        \"4167\",\n            \"originChamber\": \"House\",\n            \"originChamberCode\":
        \"H\",\n            \"title\": \"Protecting America\\u2019s Distribution Transformer
        Supply Chain Act\",\n            \"type\": \"HR\",\n            \"updateDate\":
        \"2024-03-28\",\n            \"updateDateIncludingText\": \"2024-03-28T20:26:13Z\",\n
        \           \"url\": \"https://api.congress.gov/v3/bill/118/hr/4167?format=json\"\n
        \       },\n        {\n            \"congress\": 118,\n            \"latestAction\":
        {\n                \"actionDate\": \"2024-03-26\",\n                \"actionTime\":
        \"09:04:01\",\n                \"text\": \"Held at the desk.\"\n            },\n
        \           \"number\": \"3613\",\n            \"originChamber\": \"Senate\",\n
        \           \"originChamberCode\": \"S\",\n            \"title\": \"Improving
        Federal Building Security Act of 2024\",\n            \"type\": \"S\",\n            \"updateDate\":
        \"2024-03-28\",\n            \"updateDateIncludingText\": \"2024-03-28T04:20:22Z\",\n
        \           \"url\": \"https://api.congress.gov/v3/bill/118/s/3613?format=json\"\n
        \       },\n        {\n            \"congress\": 118,\n            \"latestAction\":
        {\n                \"actionDate\": \"2024-03-26\",\n                \"actionTime\":
        \"09:04:00\",\n                \"text\": \"Held at the desk.\"\n            },\n
        \           \"number\": \"1258\",\n            \"originChamber\": \"Senate\",\n
        \           \"originChamberCode\": \"S\",\n            \"title\": \"Billion
        Dollar Boondoggle Act of 2023\",\n            \"type\": \"S\",\n            \"updateDate\":
        \"2024-03-28\",\n            \"updateDateIncludingText\": \"2024-03-28T04:20:21Z\",\n
        \           \"url\": \"https://api.congress.gov/v3/bill/118/s/1258?format=json\"\n
        \       },\n        {\n            \"congress\": 118,\n            \"latestAction\":
        {\n                \"actionDate\": \"2024-03-26\",\n                \"actionTime\":
        \"09:03:58\",\n                \"text\": \"Held at the desk.\"\n            },\n
        \           \"number\": \"4050\",\n            \"originChamber\": \"Senate\",\n
        \           \"originChamberCode\": \"S\",\n            \"title\": \"A bill
        to extend the deadline to commence construction of certain hydroelectric projects
        on the Red River.\",\n            \"type\": \"S\",\n            \"updateDate\":
        \"2024-03-28\",\n            \"updateDateIncludingText\": \"2024-03-28T04:20:21Z\",\n
        \           \"url\": \"https://api.congress.gov/v3/bill/118/s/4050?format=json\"\n
        \       }\n    ],\n    \"pagination\": {\n        \"count\": 405118,\n        \"next\":
        \"https://api.congress.gov/v3/bill?offset=5&limit=5&format=json\"\n    },\n
        \   \"request\": {\n        \"contentType\": \"application/json\",\n        \"format\":
        \"json\"\n    }\n}"
    headers:
      Access-Control-Allow-Origin:
      - '*'
      Age:
      - '3'
      Cache-Control:
      - max-age=900
      Cf-Cache-Status:
      - DYNAMIC
      Cf-Ray:
      - 86c1d3befc0a95dd-SEA
      Connection:
      - keep-alive
      Content-Encoding:
      - gzip
      Content-Type:
      - application/json
      Date:
      - Fri, 29 Mar 2024 18:12:18 GMT
      Expires:
      - Fri, 29 Mar 2024 18:27:18 GMT
      Set-Cookie:
      - __cf_bm=wBCdd6Wjw0yXMs4Z20fDAwBP535pVQzZZ1i89X8KR9k-1711735938-1.0.1.1-PRs1eWdYUau6cVlxxep6oYu0pDdqMl1AbqXpTuqTRlhHlgQDE2SP93W6EoF0v.wXNENW5qiRH_PMYdS_w1kkoQ;
        path=/; expires=Fri, 29-Mar-24 18:42:18 GMT; domain=.congress.gov; HttpOnly;
        SameSite=None
      Strict-Transport-Security:
      - max-age=31536000; preload
      Transfer-Encoding:
      - chunked
      Vary:
      - Accept-Encoding
      - Accept
      Via:
      - https/1.1 api-umbrella (ApacheTrafficServer [cMsSf ])
      X-Api-Umbrella-Request-Id:
      - cehdkp6eu493frbmrs4g
      X-Cache:
      - MISS
      X-Content-Type-Options:
      - nosniff
      X-Frame-Options:
      - DENY
      X-Ratelimit-Limit:
      - '5000'
      X-Ratelimit-Remaining:
      - '4998'
      X-Vcap-Request-Id:
      - 45efaa51-c018-4d60-444a-97e50ad88985
      X-XSS-Protection:
      - 1; mode=block
    status:
      code: 200
      message: OK
version: 1
